<svg  viewBox="0 0 496 496" xmlns="http://www.w3.org/2000/svg">
<path fill="#0081ff" d="m472 0-2.046875.214844c-69.183594 10.640625-131.921875 42.433594-181.417969 91.929687-12.246094 12.246094-23.359375 25.550781-33.503906 39.566407l-15.640625-15.640626c-7.78125-7.78125-18.144531-12.070312-29.152344-12.070312-14.167969 0-27.167969 7.144531-34.78125 19.097656l-3.472656 5.445313c-96.761719 6.242187-171.984375 85.90625-171.984375 183.457031 0 101.464844 82.542969 184 184 184 97.550781 0 177.222656-75.222656 183.449219-171.992188l5.453125-3.472656c11.960937-7.597656 19.097656-20.597656 19.097656-34.765625 0-11.007812-4.289062-21.371093-12.070312-29.160156l-15.640626-15.640625c14.007813-10.144531 27.3125-21.257812 39.558594-33.511719 49.496094-49.496093 81.289063-112.226562 91.929688-181.410156l.222656-2.046875c0-13.230469-10.769531-24-24-24zm-283.039062 131.6875c4.65625-7.320312 12.605468-11.6875 21.277343-11.6875 6.738281 0 13.074219 2.625 17.832031 7.390625l17.683594 17.679687c-3.425781 5.265626-6.769531 10.578126-9.890625 16.035157l-8.527343 14.925781-18.921876-18.925781-59.375 50.894531h-5.039062v-5.671875zm43.039062 164.746094c0 14.910156-10.105469 27.847656-24.566406 31.46875l-52.441406 13.113281 13.113281-52.449219c3.613281-14.460937 16.550781-24.558594 31.460937-24.558594 8.160156 0 15.539063 3.128907 21.25 8.128907l3.0625 3.0625c4.992188 5.695312 8.121094 13.074219 8.121094 21.234375zm32.863281-28.257813 8.617188 8.617188-16.144531 9.222656-3.34375-3.34375zm-22.296875 3.082031-5.917968-5.921874c-1.816407-2.160157-3.816407-4.160157-5.976563-5.976563l-5.917969-5.917969 46.503906-34.875 6.183594 6.1875zm-29.246094-29.25-3.34375-3.34375 9.222657-16.144531 8.617187 8.617188zm-141.320312 45.992188h40c4.40625 0 8 3.585938 8 8s-3.59375 8-8 8h-95.609375c1.371094-29.257812 10.074219-56.527344 24.480469-80h47.128906c4.40625 0 8 3.585938 8 8s-3.59375 8-8 8h-16c-13.230469 0-24 10.769531-24 24s10.769531 24 24 24zm-50.984375 64h66.984375c4.40625 0 8 3.585938 8 8s-3.59375 8-8 8c-13.230469 0-24 10.769531-24 24s10.769531 24 24 24h32c4.40625 0 8 3.585938 8 8s-3.59375 8-8 8h-53.351562c-22.03125-21.550781-38.046876-49.121094-45.632813-80zm162.984375 128c-5.398438 0-10.726562-.3125-16-.808594v-7.191406c0-4.414062 3.59375-8 8-8h48c13.230469 0 24-10.769531 24-24s-10.769531-24-24-24h-16c-4.40625 0-8-3.585938-8-8s3.59375-8 8-8h119.144531c-29.542969 48.136719-82.535156 80-143.144531 80zm151.878906-96h-127.878906c-13.230469 0-24 10.769531-24 24s10.769531 24 24 24h16c4.40625 0 8 3.585938 8 8s-3.59375 8-8 8h-48c-13.230469 0-24 10.769531-24 24v4.855469c-24.382812-4.726563-46.824219-14.800781-66.230469-28.855469h34.230469c13.230469 0 24-10.769531 24-24s-10.769531-24-24-24h-32c-4.40625 0-8-3.585938-8-8s3.59375-8 8-8c13.230469 0 24-10.769531 24-24s-10.769531-24-24-24h-70.078125c-.761719-5.265625-1.257813-10.59375-1.515625-16h95.59375c13.230469 0 24-10.769531 24-24s-10.769531-24-24-24h-40c-4.40625 0-8-3.585938-8-8s3.59375-8 8-8h16c13.230469 0 24-10.769531 24-24s-10.769531-24-24-24h-36.128906c26.21875-33.335938 64.847656-56.449219 109.28125-62.433594l-33.152344 52.105469v26.328125h26.960938l52.625-45.105469 11.527343 11.53125-29.089843 50.902344 6.886718 6.886719c-21.109375 1.160156-39.140625 15.738281-44.324218 36.464844l-19.578126 78.304687 78.3125-19.578125c20.71875-5.175781 35.296876-23.207031 36.457032-44.328125l6.886718 6.890625 50.910157-29.089844 11.53125 11.527344-45.105469 52.632812v26.960938h26.328125l52.105469-33.160156c-2.355469 17.425781-7.363282 33.921875-14.554688 49.160156zm32.730469-116.078125c4.765625 4.765625 7.390625 11.101563 7.390625 17.847656 0 8.671875-4.367188 16.621094-11.679688 21.269531l-70.648437 44.960938h-5.671875v-5.039062l50.894531-59.375-18.917969-18.929688 14.917969-8.527344c5.457031-3.121094 10.777344-6.464844 16.042969-9.890625zm23.925781-71.769531c-19.535156 19.527344-41.597656 36.390625-65.574218 50.09375l-39.074219 22.328125-13.320313-13.316407 24-32-25.8125-25.816406-32 24-13.320312-13.320312 22.328125-39.082032c13.703125-23.984374 30.558593-46.046874 50.085937-65.574218 26.335938-26.335938 56.617188-47.386719 89.695313-62.609375l65.601562 65.601562c-15.222656 33.078125-36.273437 63.359375-62.609375 89.695313zm87.433594-172.535156c-3.570312 23.175781-9.679688 45.566406-18.097656 66.941406l-56.429688-56.429688c21.367188-8.410156 43.75-14.519531 66.910156-18.089844l.144532-.023437c4.015625.242187 7.238281 3.464844 7.496094 7.480469zm0 0"/>
<path fill="#0081ff" d="m360 80c-30.878906 0-56 25.128906-56 56s25.121094 56 56 56 56-25.128906 56-56-25.121094-56-56-56zm0 96c-22.054688 0-40-17.945312-40-40s17.945312-40 40-40 40 17.945312 40 40-17.945312 40-40 40zm0 0"/>
<path fill="#0081ff" d="m360 112c-13.230469 0-24 10.769531-24 24s10.769531 24 24 24 24-10.769531 24-24-10.769531-24-24-24zm0 32c-4.40625 0-8-3.585938-8-8s3.59375-8 8-8 8 3.585938 8 8-3.59375 8-8 8zm0 0"/>
<path fill="#0081ff" d="m464 40c0 4.417969-3.582031 8-8 8s-8-3.582031-8-8 3.582031-8 8-8 8 3.582031 8 8zm0 0"/>
<path fill="#0081ff" d="m290.339844 194.34375 16-16 11.3125 11.316406-15.996094 15.996094zm0 0"/></svg>