{
  "produtos": [
    {
      "id": 1,
      "idVendedor": 1,
      "idCategoria": 1,
      "nome": "calça jeans flare lança perfume",
      "preco": 280,
      "imagem": "https://photos.enjoei.com.br/mocas-roupas-calcas-lanca-perfume-calca-jeans-flare-lanca-perfume/1200xN/czM6Ly9waG90b3MuZW5qb2VpLmNvbS5ici9wcm9kdWN0cy81NjY5ODkyLzZmNWUwZGM3YjA5NjhhOWEwYjk0ODNmZDJmZWQzM2YxLmpwZw"
    },
    {
      "id": 2,
      "idVendedor": 2,
      "idCategoria": 1,
      "nome": "short jeans mercatto",
      "preco": 144,
      "imagem": "https://photos.enjoei.com.br/mocas-roupas-short-mercatto-short-jeans-mercatto/1200xN/czM6Ly9waG90b3MuZW5qb2VpLmNvbS5ici9wcm9kdWN0cy81OTAzMjM2L2FlMzVhMzIzOTMxYjQ1ZmVkZDY1NTI3MDgyYWZlYjc0LmpwZw"
    },
    {
      "id": 3,
      "idVendedor": 2,
      "idCategoria": 1,
      "nome": "short off white jeans sawary",
      "preco": 43,
      "imagem": "https://photos.enjoei.com.br/mocas-roupas-short-sawary-short-off-white-jeans-sawary/1200xN/czM6Ly9waG90b3MuZW5qb2VpLmNvbS5ici9wcm9kdWN0cy81OTAzMjM2L2M1NzlkNzg0YWZjYTYwMTYyZDFiMDIwYThjOGZjNmUxLmpwZw"
    },
    {
      "id": 4,
      "idVendedor": 2,
      "idCategoria": 1,
      "nome": "colete jeans lady rock",
      "preco": 54,
      "imagem": "https://photos.enjoei.com.br/mocas-roupas-coletes-lady-rock-colete-jeans-lady-rock/1200xN/czM6Ly9waG90b3MuZW5qb2VpLmNvbS5ici9wcm9kdWN0cy81OTAzMjM2LzJkYjNhYmU4MjNkODQyNjk0OTAwZjlkY2NlNTIwOTgzLmpwZw"
    },
    {
      "id": 5,
      "idVendedor": 3,
      "idCategoria": 1,
      "nome": "calça pantalona amarração",
      "preco": 80,
      "imagem": "https://photos.enjoei.com.br/mocas-roupas-calcas-calca-pantalona-amarracao/1200xN/czM6Ly9waG90b3MuZW5qb2VpLmNvbS5ici9wcm9kdWN0cy8xNTc4MDc4Ni8wMmZhMTgyMGI1NjRmZmZiNDZmNjA3ZDQxZDAxOWViZi5qcGc"
    },
    {
      "id": 6,
      "idVendedor": 4,
      "idCategoria": 1,
      "nome": "short de preguinhas",
      "preco": 120,
      "imagem": "https://photos.enjoei.com.br/mocas-roupas-saias-marc-jacobs-short-de-preguinhas/1200xN/czM6Ly9waG90b3MuZW5qb2VpLmNvbS5ici9wcm9kdWN0cy8xMDY1NTY1My8zZDIzZDQ4MTU5MzA5Y2I0ZWI3Njk2NDJhYTg4YWUwYy5qcGc"
    },
    {
      "id": 7,
      "idVendedor": 1,
      "idCategoria": 2,
      "nome": "calça jeans flare lança perfume",
      "preco": 280,
      "imagem": "https://photos.enjoei.com.br/mocas-roupas-calcas-lanca-perfume-calca-jeans-flare-lanca-perfume/1200xN/czM6Ly9waG90b3MuZW5qb2VpLmNvbS5ici9wcm9kdWN0cy81NjY5ODkyLzZmNWUwZGM3YjA5NjhhOWEwYjk0ODNmZDJmZWQzM2YxLmpwZw"
    },
    {
      "id": 8,
      "idVendedor": 2,
      "idCategoria": 2,
      "nome": "short jeans mercatto",
      "preco": 144,
      "imagem": "https://photos.enjoei.com.br/mocas-roupas-short-mercatto-short-jeans-mercatto/1200xN/czM6Ly9waG90b3MuZW5qb2VpLmNvbS5ici9wcm9kdWN0cy81OTAzMjM2L2FlMzVhMzIzOTMxYjQ1ZmVkZDY1NTI3MDgyYWZlYjc0LmpwZw"
    },
    {
      "id": 9,
      "idVendedor": 2,
      "idCategoria": 2,
      "nome": "short off white jeans sawary",
      "preco": 43,
      "imagem": "https://photos.enjoei.com.br/mocas-roupas-short-sawary-short-off-white-jeans-sawary/1200xN/czM6Ly9waG90b3MuZW5qb2VpLmNvbS5ici9wcm9kdWN0cy81OTAzMjM2L2M1NzlkNzg0YWZjYTYwMTYyZDFiMDIwYThjOGZjNmUxLmpwZw"
    },
    {
      "id": 10,
      "idVendedor": 2,
      "idCategoria": 2,
      "nome": "colete jeans lady rock",
      "preco": 54,
      "imagem": "https://photos.enjoei.com.br/mocas-roupas-coletes-lady-rock-colete-jeans-lady-rock/1200xN/czM6Ly9waG90b3MuZW5qb2VpLmNvbS5ici9wcm9kdWN0cy81OTAzMjM2LzJkYjNhYmU4MjNkODQyNjk0OTAwZjlkY2NlNTIwOTgzLmpwZw"
    },
    {
      "id": 11,
      "idVendedor": 3,
      "idCategoria": 2,
      "nome": "calça pantalona amarração",
      "preco": 80,
      "imagem": "https://photos.enjoei.com.br/mocas-roupas-calcas-calca-pantalona-amarracao/1200xN/czM6Ly9waG90b3MuZW5qb2VpLmNvbS5ici9wcm9kdWN0cy8xNTc4MDc4Ni8wMmZhMTgyMGI1NjRmZmZiNDZmNjA3ZDQxZDAxOWViZi5qcGc"
    },
    {
      "id": 12,
      "idVendedor": 4,
      "idCategoria": 2,
      "nome": "short de preguinhas",
      "preco": 120,
      "imagem": "https://photos.enjoei.com.br/mocas-roupas-saias-marc-jacobs-short-de-preguinhas/1200xN/czM6Ly9waG90b3MuZW5qb2VpLmNvbS5ici9wcm9kdWN0cy8xMDY1NTY1My8zZDIzZDQ4MTU5MzA5Y2I0ZWI3Njk2NDJhYTg4YWUwYy5qcGc"
    },
    {
      "id": 13,
      "idVendedor": 1,
      "idCategoria": 3,
      "nome": "calça jeans flare lança perfume",
      "preco": 280,
      "imagem": "https://photos.enjoei.com.br/mocas-roupas-calcas-lanca-perfume-calca-jeans-flare-lanca-perfume/1200xN/czM6Ly9waG90b3MuZW5qb2VpLmNvbS5ici9wcm9kdWN0cy81NjY5ODkyLzZmNWUwZGM3YjA5NjhhOWEwYjk0ODNmZDJmZWQzM2YxLmpwZw"
    },
    {
      "id": 14,
      "idVendedor": 2,
      "idCategoria": 3,
      "nome": "short jeans mercatto",
      "preco": 144,
      "imagem": "https://photos.enjoei.com.br/mocas-roupas-short-mercatto-short-jeans-mercatto/1200xN/czM6Ly9waG90b3MuZW5qb2VpLmNvbS5ici9wcm9kdWN0cy81OTAzMjM2L2FlMzVhMzIzOTMxYjQ1ZmVkZDY1NTI3MDgyYWZlYjc0LmpwZw"
    },
    {
      "id": 15,
      "idVendedor": 2,
      "idCategoria": 3,
      "nome": "short off white jeans sawary",
      "preco": 43,
      "imagem": "https://photos.enjoei.com.br/mocas-roupas-short-sawary-short-off-white-jeans-sawary/1200xN/czM6Ly9waG90b3MuZW5qb2VpLmNvbS5ici9wcm9kdWN0cy81OTAzMjM2L2M1NzlkNzg0YWZjYTYwMTYyZDFiMDIwYThjOGZjNmUxLmpwZw"
    },
    {
      "id": 16,
      "idVendedor": 2,
      "idCategoria": 3,
      "nome": "colete jeans lady rock",
      "preco": 54,
      "imagem": "https://photos.enjoei.com.br/mocas-roupas-coletes-lady-rock-colete-jeans-lady-rock/1200xN/czM6Ly9waG90b3MuZW5qb2VpLmNvbS5ici9wcm9kdWN0cy81OTAzMjM2LzJkYjNhYmU4MjNkODQyNjk0OTAwZjlkY2NlNTIwOTgzLmpwZw"
    },
    {
      "id": 17,
      "idVendedor": 3,
      "idCategoria": 3,
      "nome": "calça pantalona amarração",
      "preco": 80,
      "imagem": "https://photos.enjoei.com.br/mocas-roupas-calcas-calca-pantalona-amarracao/1200xN/czM6Ly9waG90b3MuZW5qb2VpLmNvbS5ici9wcm9kdWN0cy8xNTc4MDc4Ni8wMmZhMTgyMGI1NjRmZmZiNDZmNjA3ZDQxZDAxOWViZi5qcGc"
    },
    {
      "id": 18,
      "idVendedor": 4,
      "idCategoria": 3,
      "nome": "short de preguinhas",
      "preco": 120,
      "imagem": "https://photos.enjoei.com.br/mocas-roupas-saias-marc-jacobs-short-de-preguinhas/1200xN/czM6Ly9waG90b3MuZW5qb2VpLmNvbS5ici9wcm9kdWN0cy8xMDY1NTY1My8zZDIzZDQ4MTU5MzA5Y2I0ZWI3Njk2NDJhYTg4YWUwYy5qcGc"
    },
    {
      "id": 19,
      "idVendedor": 1,
      "idCategoria": 4,
      "nome": "calça jeans flare lança perfume",
      "preco": 280,
      "imagem": "https://photos.enjoei.com.br/mocas-roupas-calcas-lanca-perfume-calca-jeans-flare-lanca-perfume/1200xN/czM6Ly9waG90b3MuZW5qb2VpLmNvbS5ici9wcm9kdWN0cy81NjY5ODkyLzZmNWUwZGM3YjA5NjhhOWEwYjk0ODNmZDJmZWQzM2YxLmpwZw"
    },
    {
      "id": 20,
      "idVendedor": 2,
      "idCategoria": 4,
      "nome": "short jeans mercatto",
      "preco": 144,
      "imagem": "https://photos.enjoei.com.br/mocas-roupas-short-mercatto-short-jeans-mercatto/1200xN/czM6Ly9waG90b3MuZW5qb2VpLmNvbS5ici9wcm9kdWN0cy81OTAzMjM2L2FlMzVhMzIzOTMxYjQ1ZmVkZDY1NTI3MDgyYWZlYjc0LmpwZw"
    },
    {
      "id": 21,
      "idVendedor": 2,
      "idCategoria": 4,
      "nome": "short off white jeans sawary",
      "preco": 43,
      "imagem": "https://photos.enjoei.com.br/mocas-roupas-short-sawary-short-off-white-jeans-sawary/1200xN/czM6Ly9waG90b3MuZW5qb2VpLmNvbS5ici9wcm9kdWN0cy81OTAzMjM2L2M1NzlkNzg0YWZjYTYwMTYyZDFiMDIwYThjOGZjNmUxLmpwZw"
    },
    {
      "id": 22,
      "idVendedor": 2,
      "idCategoria": 4,
      "nome": "colete jeans lady rock",
      "preco": 54,
      "imagem": "https://photos.enjoei.com.br/mocas-roupas-coletes-lady-rock-colete-jeans-lady-rock/1200xN/czM6Ly9waG90b3MuZW5qb2VpLmNvbS5ici9wcm9kdWN0cy81OTAzMjM2LzJkYjNhYmU4MjNkODQyNjk0OTAwZjlkY2NlNTIwOTgzLmpwZw"
    },
    {
      "id": 23,
      "idVendedor": 3,
      "idCategoria": 4,
      "nome": "calça pantalona amarração",
      "preco": 80,
      "imagem": "https://photos.enjoei.com.br/mocas-roupas-calcas-calca-pantalona-amarracao/1200xN/czM6Ly9waG90b3MuZW5qb2VpLmNvbS5ici9wcm9kdWN0cy8xNTc4MDc4Ni8wMmZhMTgyMGI1NjRmZmZiNDZmNjA3ZDQxZDAxOWViZi5qcGc"
    },
    {
      "id": 24,
      "idVendedor": 4,
      "idCategoria": 4,
      "nome": "short de preguinhas",
      "preco": 120,
      "imagem": "https://photos.enjoei.com.br/mocas-roupas-saias-marc-jacobs-short-de-preguinhas/1200xN/czM6Ly9waG90b3MuZW5qb2VpLmNvbS5ici9wcm9kdWN0cy8xMDY1NTY1My8zZDIzZDQ4MTU5MzA5Y2I0ZWI3Njk2NDJhYTg4YWUwYy5qcGc"
    }
  ],
  "detalhes": [
    {
      "id": 1,
      "idProduto": 1,
      "marca": "lança perfume",
      "condicao": "novo",
      "codigo": "#46426433",
      "descricao": "produto novo \n tamanho: 38 (36 modelagem grande) \n composição: 100% algodão \n medidas: cintura média: 80 cm, quadril: 106cm, comprimento: 116cm"
    },
    {
      "id": 2,
      "idProduto": 2,
      "marca": "mercatto",
      "condicao": "novo",
      "codigo": "#47422841",
      "descricao": "short confeccionado em jeans, o modelo possui cós com passantes, fecho por botão, zíper, bolsos e modelagem curto. \n composição: algodão, elastano \n medidas: \n cintura: 84.0cm \n comprimento: 35.0cm \n gancho: 27.0cm \n quadril: 100.0cm"
    },
    {
      "id": 3,
      "idProduto": 3,
      "marca": "sawary",
      "condicao": "usado",
      "codigo": "#47288828",
      "descricao": "short off white confeccionado em jeans, o modelo possui cintura baixa, passantes, bolso, acabamento destroyed, fechamento por zíper e modelagem reta. \n composição: algodão \n medidas: \n cintura: 72.0cm \n comprimento: 35.0cm \n quadril: 80.0cm"
    },
    {
      "id": 4,
      "idProduto": 4,
      "marca": "lady rock",
      "condicao": "usado",
      "codigo": "#45194838",
      "descricao": "colete confeccionado em jeans destroyd, o modelo possui gola italiana, fecho por botão, bolsos e modelagem curto. \n composição: algodão, elastano \n medidas: \n busto: 96.0cm \n comprimento: 49.0cm"
    },
    {
      "id": 5,
      "idProduto": 5,
      "marca": "",
      "condicao": "usado",
      "codigo": "#48034577",
      "descricao": "calça pantalona imitando jeans, molinha, de amarração, veste do m ao g"
    },
    {
      "id": 6,
      "idProduto": 6,
      "marca": "marc jacobs",
      "condicao": "usado",
      "codigo": "#43644930",
      "descricao": "short preto em jeans de algodão, possui pregas, cós com tiras e fivelas com ajuste e fecho por colchete e zíper. \n tam: us 6 \n cintura: 78 \n quadril: 100 \n gancho: 29 \n comp: 35"
    },
    {
      "id": 7,
      "idProduto": 7,
      "marca": "lança perfume",
      "condicao": "novo",
      "codigo": "#46426433",
      "descricao": "produto novo \n tamanho: 38 (36 modelagem grande) \n composição: 100% algodão \n medidas: cintura média: 80 cm, quadril: 106cm, comprimento: 116cm"
    },
    {
      "id": 8,
      "idProduto": 8,
      "marca": "mercatto",
      "condicao": "novo",
      "codigo": "#47422841",
      "descricao": "short confeccionado em jeans, o modelo possui cós com passantes, fecho por botão, zíper, bolsos e modelagem curto. \n composição: algodão, elastano \n medidas: \n cintura: 84.0cm \n comprimento: 35.0cm \n gancho: 27.0cm \n quadril: 100.0cm"
    },
    {
      "id": 9,
      "idProduto": 9,
      "marca": "sawary",
      "condicao": "usado",
      "codigo": "#47288828",
      "descricao": "short off white confeccionado em jeans, o modelo possui cintura baixa, passantes, bolso, acabamento destroyed, fechamento por zíper e modelagem reta. \n composição: algodão \n medidas: \n cintura: 72.0cm \n comprimento: 35.0cm \n quadril: 80.0cm"
    },
    {
      "id": 10,
      "idProduto": 10,
      "marca": "lady rock",
      "condicao": "usado",
      "codigo": "#45194838",
      "descricao": "colete confeccionado em jeans destroyd, o modelo possui gola italiana, fecho por botão, bolsos e modelagem curto. \n composição: algodão, elastano \n medidas: \n busto: 96.0cm \n comprimento: 49.0cm"
    },
    {
      "id": 11,
      "idProduto": 11,
      "marca": "",
      "condicao": "usado",
      "codigo": "#48034577",
      "descricao": "calça pantalona imitando jeans, molinha, de amarração, veste do m ao g"
    },
    {
      "id": 12,
      "idProduto": 12,
      "marca": "marc jacobs",
      "condicao": "usado",
      "codigo": "#43644930",
      "descricao": "short preto em jeans de algodão, possui pregas, cós com tiras e fivelas com ajuste e fecho por colchete e zíper. \n tam: us 6 \n cintura: 78 \n quadril: 100 \n gancho: 29 \n comp: 35"
    },
    {
      "id": 13,
      "idProduto": 13,
      "marca": "lança perfume",
      "condicao": "novo",
      "codigo": "#46426433",
      "descricao": "produto novo \n tamanho: 38 (36 modelagem grande) \n composição: 100% algodão \n medidas: cintura média: 80 cm, quadril: 106cm, comprimento: 116cm"
    },
    {
      "id": 14,
      "idProduto": 14,
      "marca": "mercatto",
      "condicao": "novo",
      "codigo": "#47422841",
      "descricao": "short confeccionado em jeans, o modelo possui cós com passantes, fecho por botão, zíper, bolsos e modelagem curto. \n composição: algodão, elastano \n medidas: \n cintura: 84.0cm \n comprimento: 35.0cm \n gancho: 27.0cm \n quadril: 100.0cm"
    },
    {
      "id": 15,
      "idProduto": 15,
      "marca": "sawary",
      "condicao": "usado",
      "codigo": "#47288828",
      "descricao": "short off white confeccionado em jeans, o modelo possui cintura baixa, passantes, bolso, acabamento destroyed, fechamento por zíper e modelagem reta. \n composição: algodão \n medidas: \n cintura: 72.0cm \n comprimento: 35.0cm \n quadril: 80.0cm"
    },
    {
      "id": 16,
      "idProduto": 16,
      "marca": "lady rock",
      "condicao": "usado",
      "codigo": "#45194838",
      "descricao": "colete confeccionado em jeans destroyd, o modelo possui gola italiana, fecho por botão, bolsos e modelagem curto. \n composição: algodão, elastano \n medidas: \n busto: 96.0cm \n comprimento: 49.0cm"
    },
    {
      "id": 17,
      "idProduto": 17,
      "marca": "",
      "condicao": "usado",
      "codigo": "#48034577",
      "descricao": "calça pantalona imitando jeans, molinha, de amarração, veste do m ao g"
    },
    {
      "id": 18,
      "idProduto": 18,
      "marca": "marc jacobs",
      "condicao": "usado",
      "codigo": "#43644930",
      "descricao": "short preto em jeans de algodão, possui pregas, cós com tiras e fivelas com ajuste e fecho por colchete e zíper. \n tam: us 6 \n cintura: 78 \n quadril: 100 \n gancho: 29 \n comp: 35"
    },
    {
      "id": 19,
      "idProduto": 19,
      "marca": "lança perfume",
      "condicao": "novo",
      "codigo": "#46426433",
      "descricao": "produto novo \n tamanho: 38 (36 modelagem grande) \n composição: 100% algodão \n medidas: cintura média: 80 cm, quadril: 106cm, comprimento: 116cm"
    },
    {
      "id": 20,
      "idProduto": 20,
      "marca": "mercatto",
      "condicao": "novo",
      "codigo": "#47422841",
      "descricao": "short confeccionado em jeans, o modelo possui cós com passantes, fecho por botão, zíper, bolsos e modelagem curto. \n composição: algodão, elastano \n medidas: \n cintura: 84.0cm \n comprimento: 35.0cm \n gancho: 27.0cm \n quadril: 100.0cm"
    },
    {
      "id": 21,
      "idProduto": 21,
      "marca": "sawary",
      "condicao": "usado",
      "codigo": "#47288828",
      "descricao": "short off white confeccionado em jeans, o modelo possui cintura baixa, passantes, bolso, acabamento destroyed, fechamento por zíper e modelagem reta. \n composição: algodão \n medidas: \n cintura: 72.0cm \n comprimento: 35.0cm \n quadril: 80.0cm"
    },
    {
      "id": 22,
      "idProduto": 22,
      "marca": "lady rock",
      "condicao": "usado",
      "codigo": "#45194838",
      "descricao": "colete confeccionado em jeans destroyd, o modelo possui gola italiana, fecho por botão, bolsos e modelagem curto. \n composição: algodão, elastano \n medidas: \n busto: 96.0cm \n comprimento: 49.0cm"
    },
    {
      "id": 23,
      "idProduto": 23,
      "marca": "",
      "condicao": "usado",
      "codigo": "#48034577",
      "descricao": "calça pantalona imitando jeans, molinha, de amarração, veste do m ao g"
    },
    {
      "id": 24,
      "idProduto": 24,
      "marca": "marc jacobs",
      "condicao": "usado",
      "codigo": "#43644930",
      "descricao": "short preto em jeans de algodão, possui pregas, cós com tiras e fivelas com ajuste e fecho por colchete e zíper. \n tam: us 6 \n cintura: 78 \n quadril: 100 \n gancho: 29 \n comp: 35"
    }
  ],
  "vendedor": [
    {
      "id": 1,
      "nome": "las madames só originais",
      "cidade": "Osasco",
      "estado": "SP",
      "tempoMedio": "1 dia",
      "qtdItensVendidos": 898,
      "criacao": "2016-06-01"
    },
    {
      "id": 2,
      "nome": "Enjoei pro",
      "cidade": "Loja real oficial",
      "estado": "",
      "tempoMedio": "2 dia",
      "qtdItensVendidos": 379000,
      "criacao": "2017-07-01"
    },
    {
      "id": 3,
      "nome": "lojinha da leticia",
      "cidade": "Belo Horizonte",
      "estado": "MG",
      "tempoMedio": "",
      "qtdItensVendidos": 0,
      "criacao": "2020-11-01"
    },
    {
      "id": 4,
      "nome": "dani noce",
      "cidade": "Embu das artes",
      "estado": "SP",
      "tempoMedio": "2 dias",
      "qtdItensVendidos": 3000,
      "criacao": "2014-04-01"
    }
  ],
  "comentarios": [],
  "categorias": [
    {
      "id": 1,
      "nome": "look jeans",
      "subTitulo": "da cabeça aos pés"
    },
    {
      "id": 2,
      "nome": "desconto que você quer?",
      "subTitulo": "pois não, senhora"
    },
    {
      "id": 3,
      "nome": "já chegou o verão",
      "subTitulo": "no enjoei pro"
    },
    {
      "id": 4,
      "nome": "mini frete só 3,99",
      "subTitulo": "nesse pegar e levar"
    }
  ],
  "banners": [
    {
      "id": 1,
      "imagem": "https://photos.enjoei.com.br/public/1176x300/czM6Ly9waG90b3MuZW5qb2VpLmNvbS5ici9iYW5uZXJzLzQ3MTkyOS83NTY5ZGYwNmU2NDY3NmFmZWU5N2ZlNTVjOGE2OGZkMC5qcGc"
    },
    {
      "id": 2,
      "imagem": "https://photos.enjoei.com.br/public/1176x300/czM6Ly9waG90b3MuZW5qb2VpLmNvbS5ici9iYW5uZXJzLzQ3MTkyOS9mNzUwYjVkYmY1Njk0ZTdmYjVhMzJkZTI2YzIyZWQ3ZC5qcGc"
    },
    {
      "id": 3,
      "imagem": "https://photos.enjoei.com.br/public/1176x300/czM6Ly9waG90b3MuZW5qb2VpLmNvbS5ici9iYW5uZXJzLzM5MTkyMS9jYTRiNmQzYWU5MmYwZDdkMjE2ZThkY2QwZThlM2MyNS5qcGc"
    },
    {
      "id": 4,
      "imagem": "https://photos.enjoei.com.br/public/1176x300/czM6Ly9waG90b3MuZW5qb2VpLmNvbS5ici9iYW5uZXJzLzE4MzM2OS9iYmRiY2Y5MDAyYzkyMTlmMWNmNWViNTk1NzdlODAyMy5qcGc"
    }
  ],
  "cadastro": [
    {
      "nome": "arthur",
      "login": "arthur.mattos@gmail.com",
      "senha": "123",
      "id": 1
    },
    {
      "id": 2
    },
    {
      "id": 3
    },
    {
      "id": 4
    },
    {
      "id": 5
    },
    {
      "id": 6
    }
  ]
}